Generalising spatial data to 3D and VR
…
but to expand the corners we have to jump through some hoops and even then we get every instance of the corners, not only for each cell but to explicitly close the cell as a polygon.

as(as(raster::rasterToPolygons(r), "SpatialLinesDataFrame"), 
   "SpatialPointsDataFrame")

## class       : SpatialPointsDataFrame 
## features    : 45 
## extent      : 0, 3, 0, 3  (xmin, xmax, ymin, ymax)
## coord. ref. : NA 
## variables   : 4
## # A tibble: 45 x 4
##    layer Lines.NR Lines.ID Line.NR
##  * <dbl>    <int> <fct>      <int>
##  1 0.25         1 1              1
##  2 0.25         1 1              1
##  3 0.25         1 1              1
##  4 0.25         1 1              1
##  5 0.25         1 1              1
##  6 0.125        2 2              1
##  7 0.125        2 2              1
##  8 0.125        2 2              1
##  9 0.125        2 2              1
## 10 0.125        2 2              1
## # ... with 35 more rows
…
